 Reeves 50x10 type C instance, opt=3277
 50 10
  0 100  1  72  2  76  3 100  4  16  5   9  6   5  7  87  8  34  9  15
  0  19  1   3  2  19  3  68  4  29  5  22  6  16  7  13  8  87  9  70
  0  70  1  56  2  39  3  71  4  29  5  91  6 100  7  86  8  88  9  99
  0  50  1  93  2 100  3  71  4  84  5  64  6  67  7  29  8  28  9  81
  0  80  1  97  2   3  3  10  4  14  5  32  6  92  7  67  8  72  9  68
  0  47  1  59  2  29  3   3  4  26  5  20  6  50  7  26  8   1  9  70
  0  40  1  63  2  69  3  21  4  56  5  73  6  56  7  10  8  46  9  40
  0  84  1  80  2  68  3  82  4   4  5  45  6 100  7  96  8  29  9  67
  0  85  1  46  2  59  3  35  4  68  5  84  6  89  7  18  8  97  9  58
  0  60  1  60  2   2  3  50  4  90  5  20  6  78  7  56  8  62  9  27
  0  78  1  64  2  21  3   5  4  85  5  55  6  15  7  23  8  36  9  87
  0  98  1  31  2  42  3  73  4  83  5  48  6  71  7  49  8  72  9  30
  0   4  1  57  2  30  3  11  4  67  5   4  6  82  7  77  8  98  9  21
  0  45  1  45  2  25  3  45  4   7  5  59  6  88  7  42  8  57  9  81
  0  73  1  94  2  83  3  59  4   1  5  72  6  65  7  62  8  45  9  76
  0  77  1  84  2  11  3  82  4  10  5   9  6  67  7  27  8  43  9   8
  0  22  1  66  2   5  3  77  4  97  5  28  6  61  7  82  8  62  9  96
  0  90  1  51  2  87  3  27  4  65  5  76  6  67  7  20  8  75  9  67
  0  12  1  92  2  43  3  21  4  92  5  64  6  94  7  67  8  60  9  46
  0   9  1  76  2  62  3  46  4  71  5  65  6  76  7  65  8  30  9  38
  0  29  1  12  2  71  3  70  4  46  5  96  6  12  7  70  8  76  9  19
  0  83  1  15  2  73  3  32  4  51  5   6  6   3  7  29  8   3  9  24
  0  83  1  95  2  87  3  29  4  46  5  67  6  89  7  73  8  69  9  33
  0  83  1  46  2  82  3   2  4  55  5  54  6  85  7   3  8  20  9  57
  0  11  1  32  2  15  3  27  4   2  5  43  6  23  7  79  8  28  9  29
  0  10  1  74  2  73  3  99  4  54  5  89  6  83  7   5  8  28  9  90
  0  73  1  40  2   4  3  20  4  51  5  18  6  37  7  18  8  61  9  75
  0  85  1  30  2  58  3  89  4  48  5  15  6  82  7  77  8   2  9   3
  0  56  1  63  2  26  3  87  4  53  5   8  6  80  7  46  8   5  9  62
  0  59  1  67  2  73  3  65  4  60  5  61  6  94  7  86  8  38  9   1
  0  70  1  66  2  80  3  32  4  93  5  56  6  26  7  41  8  21  9   9
  0   4  1  66  2  79  3  43  4  39  5  83  6  55  7  25  8  62  9  13
  0  51  1  42  2  90  3  85  4  84  5  29  6  73  7   8  8  95  9  57
  0  18  1  30  2  61  3  67  4  57  5  60  6  25  7  10  8  20  9  95
  0  61  1   9  2   3  3   2  4  61  5  18  6  44  7  78  8  38  9  74
  0  25  1  91  2  31  3   2  4  14  5  97  6  91  7  84  8  88  9  26
  0  84  1   8  2  95  3  61  4  85  5  41  6  88  7   4  8  86  9  51
  0  74  1   2  2  24  3  42  4  33  5  24  6  62  7  13  8  62  9  10
  0  33  1   7  2  62  3  68  4  42  5  41  6  78  7  67  8  99  9   6
  0  38  1  43  2   2  3   4  4  62  5  95  6  76  7  91  8  67  9  78
  0  43  1  98  2  28  3  51  4  43  5  84  6  13  7  71  8  64  9  81
  0  15  1  19  2  50  3  30  4  75  5  90  6  94  7  35  8  51  9  83
  0  75  1  98  2  42  3  67  4  24  5  63  6  15  7  45  8  92  9  44
  0  29  1  60  2  80  3  86  4  70  5  13  6 100  7  86  8  88  9   6
  0  14  1  49  2  78  3  93  4  45  5  94  6  35  7  46  8  18  9  85
  0  29  1  20  2  27  3  66  4  70  5  95  6   7  7  11  8  75  9  52
  0  73  1  19  2  33  3  36  4  93  5  21  6  44  7  51  8   4  9  24
  0  87  1  79  2  52  3  85  4  24  5  89  6  50  7   4  8  37  9  50
  0  86  1  99  2  31  3  25  4  78  5  10  6  41  7  66  8  35  9   1
  0   2  1  41  2  41  3  88  4   6  5  77  6  89  7  80  8  21  9  54
