 Carlier 8x8 instance (example 8), opt=8366
 8 8
 0 456 1 654 2 852 3 145 4 632 5 425 6 214 7 654
 0 789 1 123 2 369 3 678 4 581 5 396 6 123 7 789
 0 654 1 123 2 632 3 965 4 475 5 325 6 456 7 654
 0 321 1 456 2 581 3 421 4  32 5 147 6 789 7 123
 0 456 1 789 2 472 3 365 4 536 5 852 6 654 7 123
 0 789 1 654 2 586 3 824 4 325 5  12 6 321 7 456
 0 654 1 321 2 320 3 758 4 863 5 452 6 456 7 789
 0 789 1 147 2 120 3 639 4  21 5 863 6 789 7 654
